module gitlab.com/felixz92/gopass-kubeseal

go 1.17

require (
	github.com/bitnami-labs/sealed-secrets v0.17.3
	github.com/google/uuid v1.3.0
	github.com/gopasspw/gopass v1.13.1
	github.com/pkg/errors v0.9.1
	github.com/spf13/cobra v1.3.0
	gopkg.in/yaml.v2 v2.4.0
	k8s.io/api v0.23.3
	k8s.io/apimachinery v0.23.3
	k8s.io/client-go v0.23.3
)

require (
	filippo.io/age v1.0.0 // indirect
	filippo.io/edwards25519 v1.0.0-rc.1 // indirect
	github.com/blang/semver/v4 v4.0.0 // indirect
	github.com/caspr-io/yamlpath v0.0.0-20200722075116-502e8d113a9b // indirect
	github.com/cpuguy83/go-md2man/v2 v2.0.1 // indirect
	github.com/davecgh/go-spew v1.1.1 // indirect
	github.com/dustin/go-humanize v1.0.0 // indirect
	github.com/fatih/color v1.13.0 // indirect
	github.com/go-logr/logr v1.2.0 // indirect
	github.com/gogo/protobuf v1.3.2 // indirect
	github.com/golang/protobuf v1.5.2 // indirect
	github.com/google/go-cmp v0.5.6 // indirect
	github.com/google/go-github v17.0.0+incompatible // indirect
	github.com/google/go-querystring v1.1.0 // indirect
	github.com/google/gofuzz v1.1.0 // indirect
	github.com/googleapis/gnostic v0.5.5 // indirect
	github.com/gopasspw/pinentry v0.0.2 // indirect
	github.com/hashicorp/errwrap v1.1.0 // indirect
	github.com/hashicorp/go-multierror v1.1.1 // indirect
	github.com/hashicorp/golang-lru v0.5.4 // indirect
	github.com/imdario/mergo v0.3.5 // indirect
	github.com/inconshreveable/mousetrap v1.0.0 // indirect
	github.com/json-iterator/go v1.1.12 // indirect
	github.com/kballard/go-shellquote v0.0.0-20180428030007-95032a82bc51 // indirect
	github.com/mattn/go-colorable v0.1.12 // indirect
	github.com/mattn/go-isatty v0.0.14 // indirect
	github.com/mitchellh/go-homedir v1.1.0 // indirect
	github.com/mkmik/multierror v0.3.0 // indirect
	github.com/modern-go/concurrent v0.0.0-20180306012644-bacd9c7ef1dd // indirect
	github.com/modern-go/reflect2 v1.0.2 // indirect
	github.com/muesli/crunchy v0.4.0 // indirect
	github.com/russross/blackfriday/v2 v2.1.0 // indirect
	github.com/spf13/pflag v1.0.5 // indirect
	github.com/urfave/cli/v2 v2.3.0 // indirect
	github.com/xrash/smetrics v0.0.0-20201216005158-039620a65673 // indirect
	golang.org/x/crypto v0.0.0-20211108221036-ceb1ce70b4fa // indirect
	golang.org/x/net v0.0.0-20211209124913-491a49abca63 // indirect
	golang.org/x/oauth2 v0.0.0-20211104180415-d3ed0bb246c8 // indirect
	golang.org/x/sys v0.0.0-20211205182925-97ca703d548d // indirect
	golang.org/x/term v0.0.0-20210927222741-03fcf44c2211 // indirect
	golang.org/x/text v0.3.7 // indirect
	golang.org/x/time v0.0.0-20210723032227-1f47c861a9ac // indirect
	google.golang.org/appengine v1.6.7 // indirect
	google.golang.org/protobuf v1.27.1 // indirect
	gopkg.in/inf.v0 v0.9.1 // indirect
	gopkg.in/yaml.v3 v3.0.0-20210107192922-496545a6307b // indirect
	k8s.io/klog/v2 v2.30.0 // indirect
	k8s.io/kube-openapi v0.0.0-20211115234752-e816edb12b65 // indirect
	k8s.io/utils v0.0.0-20211116205334-6203023598ed // indirect
	sigs.k8s.io/json v0.0.0-20211020170558-c049b76a60c6 // indirect
	sigs.k8s.io/structured-merge-diff/v4 v4.2.1 // indirect
	sigs.k8s.io/yaml v1.2.0 // indirect
)
